7 Structured Query Language | portfolio Arthur Timmermans
…
inspecting if gapminder data was loaded into DBeaver

After inspected the data in DBeaver, the data was also still inspected in R using the dplyr package. Bellow the data from the dengue, flu and gap minder data set are shown respectively. It becomes visible that, the data in these tables are the same as the data that was loaded into DBeaver. This confirms that the data was exported properly.

## # A tibble: 6,263 x 5
##     Year Month   Day Country   dengue_cases
##    <dbl> <dbl> <dbl> <chr>            <dbl>
##  1  2002    12    29 Bolivia            101
##  2  2002    12    29 Brazil              73
##  3  2002    12    29 India               62
##  4  2002    12    29 Indonesia          101
##  5  2002    12    29 Singapore           59
##  6  2003     1     5 Bolivia            143
##  7  2003     1     5 Brazil              98
##  8  2003     1     5 India               47
##  9  2003     1     5 Indonesia           39
## 10  2003     1     5 Singapore           59
## # ... with 6,253 more rows

## # A tibble: 17,266 x 5
##     Year Month   Day Country flu_cases
##    <dbl> <dbl> <dbl> <chr>       <int>
##  1  2002    12    29 Brazil        174
##  2  2002    12    29 Peru          329
##  3  2003     1     5 Brazil        162
##  4  2003     1     5 Peru          315
##  5  2003     1    12 Brazil        174
##  6  2003     1    12 Chile           1
##  7  2003     1    12 Peru          314
##  8  2003     1    19 Brazil        162
##  9  2003     1    19 Chile           0
## 10  2003     1    19 Peru          267
## # ... with 17,256 more rows

## # A tibble: 10,545 x 9
##    country          year infan~1 life_~2 ferti~3 popul~4      gdp conti~5 region
##    <fct>           <int>   <dbl>   <dbl>   <dbl>   <dbl>    <dbl> <fct>   <fct> 
##  1 Albania          1960   115.     62.9    6.19  1.64e6 NA       Europe  South~
##  2 Algeria          1960   148.     47.5    7.65  1.11e7  1.38e10 Africa  North~
##  3 Angola           1960   208      36.0    7.32  5.27e6 NA       Africa  Middl~
##  4 Antigua and Ba~  1960    NA      63.0    4.43  5.47e4 NA       Americ~ Carib~
##  5 Argentina        1960    59.9    65.4    3.11  2.06e7  1.08e11 Americ~ South~
##  6 Armenia          1960    NA      66.9    4.55  1.87e6 NA       Asia    Weste~
##  7 Aruba            1960    NA      65.7    4.82  5.42e4 NA       Americ~ Carib~
##  8 Australia        1960    20.3    70.9    3.45  1.03e7  9.67e10 Oceania Austr~
##  9 Austria          1960    37.3    68.8    2.7   7.07e6  5.24e10 Europe  Weste~
## 10 Azerbaijan       1960    NA      61.3    5.57  3.90e6 NA       Asia    Weste~
## # ... with 10,535 more rows, and abbreviated variable names
## #   1: infant_mortality, 2: life_expectancy, 3: fertility, 4: population,
## #   5: continent
…
